{
	"common": "This file contains all meta data for a bootloader, a wapp or a service. These infos are not only used for documentation purposes but also by bootloaders, wapps and services itself.",

	"name":
	{
		"description": "This is the unique name of the bootloader, wapp or service. But watch out, it's case sensitive.",
		"type": "string",
		"values": []
	},

	"version":
	{
		"description": "This is the version number.",
		"type": "string",
		"values": []
	},

	"versionName":
	{
		"description": "This is the version name.",
		"type": "string",
		"values": []
	},

	"versionDate":
	{
		"description": "This is the version date indicating the date and time of the latest update.",
		"type": "datetime",
		"values": []
	},

	"description":
	{
		"description": "This is the overall description. It's used for displaying purposes.",
		"type": "string",
		"values": []
	},

	"changelog":
	{
		"description": "This paraemter defined what the changelog file is. This is shown in a wapp info menu.",
		"type": "string",
		"values": []
	},
	"developer":
	{
		"description": "This sections contains several information about the developer.",
		"type": "object",
		"values": [],

		"name":
		{
			"description": "This is the name of the developer team or the developer company.",
			"type": "string",
			"values": []
		},

		"url":
		{
			"description": "This is the contact link name of the developer team or the developer company.",
			"type": "string",
			"values": []
		},

		"email":
		{
			"description": "This is the contact email address of the developer team or the developer company.",
			"type": "string",
			"values": []
		}
	},

	"mediaUrls":
	{
		"description": "This is a list of links to medias like images and videos used in the wapp store or to promote the bootloader/wapp/service.",
		"type": "array",
		"values": []
	},

	"requirements":
	{
		"description": "This is a list of links to medias like images and videos used in the wapp store or to promote the bootloader/wapp/service.",
		"type": "object",
		"values": []
	},

	"icons":
	{
		"32": "/servicetower/Bootloader/public/logo_32.png"
	},

	"visible": true,

	"permissions":
	[
		"Kal.shutdown"
	],

	"license": "Commercial",

	"manifestVersion": 1,

	"startType": "fullscreen",

	"startHeight": null,

	"startWidth": null,

	"resizable": false,

	"fullscreenable": true,

	"appcachePaths": "",

	"dependencies":
	{
		"css":
		[

		],

		"js":
		[

		]
	},

	"views":
	{

	},

	"api":
	{

	}
}