{
	"common": "This is the servicetower config file of the Webtra.net TripleTower project",

	"defaultUserId":
	{
		"description": "This is the ID the of the user to be loaded if no credentials are given. This user should have access to absolutely public information only.",
		"type": "uint",
		"values": []
	},

	"privateKeyPath":
	{
		"description": "Specifies the path to the private key file.",
		"type": "string",
		"values": []
	},

	"publicKeyPath":
	{
		"description": "Specifies the path to the public key file.",
		"type": "string",
		"values": []
	},

	"displayName":
	{
		"description": "Specifies the name which of the serivce tower. But just for displaying purposes.",
		"type": "string",
		"values": []
	},

	"serviceTowerDb":
	{
		"description": "These information is all that is needed to establish a valid connection to the service database.",
		"type": "DB Connection",
		"values": []
	},

	"g11ndb":
	{
		"description": "These information is all that is needed to establish a valid connection to the g11n database.",
		"type": "DB Connection",
		"values": []
	},

	"ldap":
	{
		"description": "These information is all that is needed to establish query against the ldap server.",
		"type": "LDAP/AD Connection",
		"values": []
	},

	"userDefaultBootloader":
	{
		"description": "This is the bootloader used for new users.",
		"type": "string",
		"values": []
	},

	"userDefaultViews":
	{
		"description": "This is a list of views a new user has access to.",
		"type": "string",
		"values": []
	},

	"userDefaultDesktopName":
	{
		"description": "This is the name for newly created user's first desktop.",
		"type": "string",
		"values": []
	},

	"userDefaultWappsTowerId":
	{
		"description": "This is the deafult wapps tower id which is used to provide users with wapps.",
		"type": "uint",
		"values": []
	}
}