{
	"environment": $environment,

	"development":
	{
		"verbosity": 7,
		"mailVerbosity": 0,
		"mailReceiver": [],
		"privateKeyPath": "C:/tripletower-stack/tripletower-sdk/etc/ssl/private/tripletower.localhost.key",
		"certificatePath": "C:/tripletower-stack/tripletower-sdk/etc/ssl/certs/tripletower.localhost.crt",
		"profilingEnabled": false,
		"optimizationEnabled": false,
		"layoutName": "default",
		"sodLayoutName": "sod",

		"tripleTowerAS":
		{
			"ascName": "TripleTowerSDK\\AuthSystem\\TripleTowerASC",
			"hostName": "",
			"userName": "",
			"password": ""
		}
	},

	"staging":
	{
		"verbosity": $verbosity,
		"mailVerbosity": $mailVerbosity,
		"mailReceiver": $mailReceiver,
		"privateKeyPath": $privateKeyPath,
		"certificatePath": $certificatePath,
		"profilingEnabled" : $profilingEnabled,
		"optimizationEnabled": $optimizationEnabled,

		$authSystems
	},

	"production":
	{

	}
}