<?xml version="1.0" encoding="UTF-8"?><svg xmlns="http://www.w3.org/2000/svg" xmlns:xlink="http://www.w3.org/1999/xlink" fill-opacity="1" color-rendering="auto" color-interpolation="auto" text-rendering="auto" stroke="black" stroke-linecap="square" width="2445" stroke-miterlimit="10" shape-rendering="auto" stroke-opacity="1" fill="black" stroke-dasharray="none" font-weight="normal" stroke-width="1" height="914" font-family="'Dialog'" font-style="normal" stroke-linejoin="miter" font-size="12px" stroke-dashoffset="0" image-rendering="auto">
  <!--Generated by ySVG 2.5-->
  <defs id="genericDefs"/>
  <g>
    <defs id="defs1">
      <clipPath clipPathUnits="userSpaceOnUse" id="clipPath1">
        <path d="M0 0 L2445 0 L2445 914 L0 914 L0 0 Z"/>
      </clipPath>
      <clipPath clipPathUnits="userSpaceOnUse" id="clipPath2">
        <path d="M-341.9079 203.026 L1131.9078 203.026 L1131.9078 753.9739 L-341.9079 753.9739 L-341.9079 203.026 Z"/>
      </clipPath>
      <clipPath clipPathUnits="userSpaceOnUse" id="clipPath3">
        <path d="M-341.1981 202.5196 L1132.6177 202.5196 L1132.6177 753.4675 L-341.1981 753.4675 L-341.1981 202.5196 Z"/>
      </clipPath>
      <clipPath clipPathUnits="userSpaceOnUse" id="clipPath4">
        <path d="M-341.1981 202.8946 L1132.6177 202.8946 L1132.6177 753.8425 L-341.1981 753.8425 L-341.1981 202.8946 Z"/>
      </clipPath>
      <clipPath clipPathUnits="userSpaceOnUse" id="clipPath5">
        <path d="M-341.8813 202.6171 L1131.9344 202.6171 L1131.9344 753.565 L-341.8813 753.565 L-341.8813 202.6171 Z"/>
      </clipPath>
      <clipPath clipPathUnits="userSpaceOnUse" id="clipPath6">
        <path d="M-342.8813 202.3046 L1130.9344 202.3046 L1130.9344 753.2525 L-342.8813 753.2525 L-342.8813 202.3046 Z"/>
      </clipPath>
      <clipPath clipPathUnits="userSpaceOnUse" id="clipPath7">
        <path d="M-342.8813 202.9921 L1130.9344 202.9921 L1130.9344 753.94 L-342.8813 753.94 L-342.8813 202.9921 Z"/>
      </clipPath>
      <clipPath clipPathUnits="userSpaceOnUse" id="clipPath8">
        <path d="M-342.0338 202.1638 L1131.782 202.1638 L1131.782 753.1117 L-342.0338 753.1117 L-342.0338 202.1638 Z"/>
      </clipPath>
      <clipPath clipPathUnits="userSpaceOnUse" id="clipPath9">
        <path d="M-342.0338 202.8513 L1131.782 202.8513 L1131.782 753.7992 L-342.0338 753.7992 L-342.0338 202.8513 Z"/>
      </clipPath>
      <clipPath clipPathUnits="userSpaceOnUse" id="clipPath10">
        <path d="M-342.0338 202.5388 L1131.782 202.5388 L1131.782 753.4867 L-342.0338 753.4867 L-342.0338 202.5388 Z"/>
      </clipPath>
      <clipPath clipPathUnits="userSpaceOnUse" id="clipPath11">
        <path d="M-342.2079 202.8869 L1131.6079 202.8869 L1131.6079 753.8348 L-342.2079 753.8348 L-342.2079 202.8869 Z"/>
      </clipPath>
      <clipPath clipPathUnits="userSpaceOnUse" id="clipPath12">
        <path d="M-342.4865 202.4905 L1131.3292 202.4905 L1131.3292 753.4384 L-342.4865 753.4384 L-342.4865 202.4905 Z"/>
      </clipPath>
      <clipPath clipPathUnits="userSpaceOnUse" id="clipPath13">
        <path d="M-342.8325 202.0433 L1130.9833 202.0433 L1130.9833 752.9912 L-342.8325 752.9912 L-342.8325 202.0433 Z"/>
      </clipPath>
      <clipPath clipPathUnits="userSpaceOnUse" id="clipPath14">
        <path d="M-342.8325 202.7308 L1130.9833 202.7308 L1130.9833 753.6787 L-342.8325 753.6787 L-342.8325 202.7308 Z"/>
      </clipPath>
      <clipPath clipPathUnits="userSpaceOnUse" id="clipPath15">
        <path d="M-342.667 202.3302 L1131.1488 202.3302 L1131.1488 753.2781 L-342.667 753.2781 L-342.667 202.3302 Z"/>
      </clipPath>
      <clipPath clipPathUnits="userSpaceOnUse" id="clipPath16">
        <path d="M-342.667 203.0177 L1131.1488 203.0177 L1131.1488 753.9656 L-342.667 753.9656 L-342.667 203.0177 Z"/>
      </clipPath>
      <clipPath clipPathUnits="userSpaceOnUse" id="clipPath17">
        <path d="M-342.667 202.7052 L1131.1488 202.7052 L1131.1488 753.6531 L-342.667 753.6531 L-342.667 202.7052 Z"/>
      </clipPath>
      <clipPath clipPathUnits="userSpaceOnUse" id="clipPath18">
        <path d="M-342.1928 202.6996 L1131.6229 202.6996 L1131.6229 753.6475 L-342.1928 753.6475 L-342.1928 202.6996 Z"/>
      </clipPath>
      <clipPath clipPathUnits="userSpaceOnUse" id="clipPath19">
        <path d="M-341.7553 202.1351 L1132.0604 202.1351 L1132.0604 753.083 L-341.7553 753.083 L-341.7553 202.1351 Z"/>
      </clipPath>
      <clipPath clipPathUnits="userSpaceOnUse" id="clipPath20">
        <path d="M-342.2804 202.2483 L1131.5353 202.2483 L1131.5353 753.1962 L-342.2804 753.1962 L-342.2804 202.2483 Z"/>
      </clipPath>
      <clipPath clipPathUnits="userSpaceOnUse" id="clipPath21">
        <path d="M-342.2804 202.9358 L1131.5353 202.9358 L1131.5353 753.8837 L-342.2804 753.8837 L-342.2804 202.9358 Z"/>
      </clipPath>
      <clipPath clipPathUnits="userSpaceOnUse" id="clipPath22">
        <path d="M-342.2804 202.6233 L1131.5353 202.6233 L1131.5353 753.5712 L-342.2804 753.5712 L-342.2804 202.6233 Z"/>
      </clipPath>
    </defs>
    <g fill="white" stroke="white">
      <path d="M11.9219 903 L11.9219 894.4062 L15.1719 894.4062 Q16.0156 894.4062 16.4688 894.4844 Q17.1094 894.5938 17.5312 894.8906 Q17.9688 895.1875 18.2188 895.7188 Q18.4844 896.25 18.4844 896.8906 Q18.4844 897.9844 17.7812 898.75 Q17.0938 899.5 15.2656 899.5 L13.0625 899.5 L13.0625 903 L11.9219 903 ZM13.0625 898.5 L15.2812 898.5 Q16.3906 898.5 16.8438 898.0938 Q17.3125 897.6719 17.3125 896.9219 Q17.3125 896.3906 17.0312 896.0156 Q16.7656 895.625 16.3281 895.5 Q16.0312 895.4219 15.2656 895.4219 L13.0625 895.4219 L13.0625 898.5 ZM19.4102 899.8906 Q19.4102 898.1562 20.3633 897.3281 Q21.1602 896.6406 22.3164 896.6406 Q23.5977 896.6406 24.4102 897.4844 Q25.2383 898.3125 25.2383 899.7969 Q25.2383 901 24.8789 901.6875 Q24.5195 902.375 23.8164 902.7656 Q23.1289 903.1406 22.3164 903.1406 Q21.0195 903.1406 20.207 902.3125 Q19.4102 901.4688 19.4102 899.8906 ZM20.4883 899.8906 Q20.4883 901.0781 21.0039 901.6719 Q21.5352 902.2656 22.3164 902.2656 Q23.1133 902.2656 23.6289 901.6719 Q24.1445 901.0781 24.1445 899.8594 Q24.1445 898.7031 23.6133 898.1094 Q23.0977 897.5156 22.3164 897.5156 Q21.5352 897.5156 21.0039 898.1094 Q20.4883 898.6875 20.4883 899.8906 ZM27.6152 903 L25.709 896.7812 L26.8027 896.7812 L27.7871 900.375 L28.1621 901.7031 Q28.1934 901.6094 28.4902 900.4219 L29.4746 896.7812 L30.5527 896.7812 L31.4902 900.3906 L31.8027 901.5781 L32.1621 900.375 L33.2246 896.7812 L34.2559 896.7812 L32.3027 903 L31.209 903 L30.2246 899.2656 L29.9746 898.2188 L28.7246 903 L27.6152 903 ZM39.3906 901 L40.4844 901.125 Q40.2344 902.0781 39.5312 902.6094 Q38.8281 903.1406 37.75 903.1406 Q36.3906 903.1406 35.5781 902.2969 Q34.7812 901.4531 34.7812 899.9375 Q34.7812 898.375 35.5938 897.5156 Q36.4062 896.6406 37.6875 896.6406 Q38.9375 896.6406 39.7188 897.4844 Q40.5156 898.3281 40.5156 899.875 Q40.5156 899.9688 40.5156 900.1562 L35.875 900.1562 Q35.9375 901.1875 36.4531 901.7344 Q36.9688 902.2656 37.75 902.2656 Q38.3281 902.2656 38.7344 901.9688 Q39.1562 901.6562 39.3906 901 ZM35.9375 899.2969 L39.4062 899.2969 Q39.3438 898.5 39.0156 898.1094 Q38.5 897.5 37.7031 897.5 Q36.9688 897.5 36.4688 897.9844 Q35.9844 898.4688 35.9375 899.2969 ZM41.7988 903 L41.7988 896.7812 L42.752 896.7812 L42.752 897.7188 Q43.1113 897.0625 43.4082 896.8594 Q43.7207 896.6406 44.0957 896.6406 Q44.627 896.6406 45.1738 896.9688 L44.8145 897.9531 Q44.4238 897.7188 44.0488 897.7188 Q43.6895 897.7188 43.4082 897.9375 Q43.1426 898.1406 43.0332 898.5156 Q42.8457 899.0781 42.8457 899.7344 L42.8457 903 L41.7988 903 ZM50.0605 901 L51.1543 901.125 Q50.9043 902.0781 50.2012 902.6094 Q49.498 903.1406 48.4199 903.1406 Q47.0605 903.1406 46.248 902.2969 Q45.4512 901.4531 45.4512 899.9375 Q45.4512 898.375 46.2637 897.5156 Q47.0762 896.6406 48.3574 896.6406 Q49.6074 896.6406 50.3887 897.4844 Q51.1855 898.3281 51.1855 899.875 Q51.1855 899.9688 51.1855 900.1562 L46.5449 900.1562 Q46.6074 901.1875 47.123 901.7344 Q47.6387 902.2656 48.4199 902.2656 Q48.998 902.2656 49.4043 901.9688 Q49.8262 901.6562 50.0605 901 ZM46.6074 899.2969 L50.0762 899.2969 Q50.0137 898.5 49.6855 898.1094 Q49.1699 897.5 48.373 897.5 Q47.6387 897.5 47.1387 897.9844 Q46.6543 898.4688 46.6074 899.2969 ZM56.5156 903 L56.5156 902.2188 Q55.9219 903.1406 54.7812 903.1406 Q54.0312 903.1406 53.4062 902.7344 Q52.7812 902.3125 52.4375 901.5781 Q52.0938 900.8438 52.0938 899.8906 Q52.0938 898.9688 52.4062 898.2031 Q52.7188 897.4375 53.3438 897.0469 Q53.9688 896.6406 54.7344 896.6406 Q55.2969 896.6406 55.7344 896.875 Q56.1719 897.1094 56.4531 897.4844 L56.4531 894.4062 L57.5 894.4062 L57.5 903 L56.5156 903 ZM53.1875 899.8906 Q53.1875 901.0938 53.6875 901.6875 Q54.1875 902.2656 54.875 902.2656 Q55.5625 902.2656 56.0469 901.7031 Q56.5312 901.1406 56.5312 899.9844 Q56.5312 898.7031 56.0312 898.1094 Q55.5469 897.5156 54.8281 897.5156 Q54.125 897.5156 53.6562 898.0938 Q53.1875 898.6562 53.1875 899.8906 ZM63.4609 903 L62.4766 903 L62.4766 894.4062 L63.5391 894.4062 L63.5391 897.4688 Q64.2109 896.6406 65.2422 896.6406 Q65.8203 896.6406 66.3203 896.875 Q66.8359 897.0938 67.1641 897.5156 Q67.5078 897.9375 67.6953 898.5312 Q67.8828 899.125 67.8828 899.7969 Q67.8828 901.3906 67.0859 902.2656 Q66.2891 903.1406 65.1953 903.1406 Q64.0859 903.1406 63.4609 902.2188 L63.4609 903 ZM63.4453 899.8438 Q63.4453 900.9531 63.7578 901.4531 Q64.2578 902.2656 65.1016 902.2656 Q65.7891 902.2656 66.2891 901.6719 Q66.8047 901.0781 66.8047 899.875 Q66.8047 898.6562 66.3203 898.0781 Q65.8359 897.5 65.1484 897.5 Q64.4609 897.5 63.9453 898.1094 Q63.4453 898.7031 63.4453 899.8438 ZM69.1191 905.3906 L68.9941 904.4062 Q69.3379 904.5 69.6035 904.5 Q69.9473 904.5 70.1504 904.375 Q70.3691 904.2656 70.5098 904.0625 Q70.6035 903.8906 70.8379 903.2656 Q70.8535 903.1875 70.9316 903.0156 L68.5566 896.7812 L69.6973 896.7812 L70.9941 900.375 Q71.2441 901.0625 71.4473 901.8281 Q71.6348 901.0938 71.8848 900.4062 L73.2129 896.7812 L74.2598 896.7812 L71.9004 903.1094 Q71.5098 904.125 71.3066 904.5156 Q71.0254 905.0469 70.6504 905.2812 Q70.291 905.5312 69.791 905.5312 Q69.4941 905.5312 69.1191 905.3906 ZM78.4531 905.3906 L78.3281 904.4062 Q78.6719 904.5 78.9375 904.5 Q79.2812 904.5 79.4844 904.375 Q79.7031 904.2656 79.8438 904.0625 Q79.9375 903.8906 80.1719 903.2656 Q80.1875 903.1875 80.2656 903.0156 L77.8906 896.7812 L79.0312 896.7812 L80.3281 900.375 Q80.5781 901.0625 80.7812 901.8281 Q80.9688 901.0938 81.2188 900.4062 L82.5469 896.7812 L83.5938 896.7812 L81.2344 903.1094 Q80.8438 904.125 80.6406 904.5156 Q80.3594 905.0469 79.9844 905.2812 Q79.625 905.5312 79.125 905.5312 Q78.8281 905.5312 78.4531 905.3906 ZM84.6875 903 L84.6875 894.4062 L90.4844 894.4062 L90.4844 895.4219 L85.8281 895.4219 L85.8281 898.0781 L89.8594 898.0781 L89.8594 899.0938 L85.8281 899.0938 L85.8281 903 L84.6875 903 ZM91.8301 895.625 L91.8301 894.4062 L92.8926 894.4062 L92.8926 895.625 L91.8301 895.625 ZM91.8301 903 L91.8301 896.7812 L92.8926 896.7812 L92.8926 903 L91.8301 903 ZM94.4648 903 L94.4648 894.4062 L95.5273 894.4062 L95.5273 903 L94.4648 903 ZM101.4121 901 L102.5059 901.125 Q102.2559 902.0781 101.5527 902.6094 Q100.8496 903.1406 99.7715 903.1406 Q98.4121 903.1406 97.5996 902.2969 Q96.8027 901.4531 96.8027 899.9375 Q96.8027 898.375 97.6152 897.5156 Q98.4277 896.6406 99.709 896.6406 Q100.959 896.6406 101.7402 897.4844 Q102.5371 898.3281 102.5371 899.875 Q102.5371 899.9688 102.5371 900.1562 L97.8965 900.1562 Q97.959 901.1875 98.4746 901.7344 Q98.9902 902.2656 99.7715 902.2656 Q100.3496 902.2656 100.7559 901.9688 Q101.1777 901.6562 101.4121 901 ZM97.959 899.2969 L101.4277 899.2969 Q101.3652 898.5 101.0371 898.1094 Q100.5215 897.5 99.7246 897.5 Q98.9902 897.5 98.4902 897.9844 Q98.0059 898.4688 97.959 899.2969 ZM103.4141 901.1406 L104.4453 900.9844 Q104.5391 901.6094 104.9297 901.9375 Q105.3359 902.2656 106.0703 902.2656 Q106.7891 902.2656 107.1328 901.9844 Q107.4922 901.6875 107.4922 901.2812 Q107.4922 900.9219 107.1797 900.7188 Q106.9609 900.5781 106.1016 900.3594 Q104.9453 900.0625 104.4922 899.8594 Q104.0547 899.6406 103.8203 899.2656 Q103.5859 898.8906 103.5859 898.4219 Q103.5859 898.0156 103.7734 897.6562 Q103.9609 897.2969 104.2891 897.0625 Q104.5391 896.8906 104.9609 896.7656 Q105.3828 896.6406 105.8828 896.6406 Q106.6016 896.6406 107.1484 896.8594 Q107.7109 897.0625 107.9766 897.4219 Q108.2422 897.7812 108.3359 898.375 L107.3047 898.5156 Q107.2422 898.0469 106.8984 897.7812 Q106.5703 897.5 105.9453 897.5 Q105.2266 897.5 104.9141 897.75 Q104.6016 897.9844 104.6016 898.3125 Q104.6016 898.5156 104.7266 898.6719 Q104.8672 898.8438 105.1328 898.9531 Q105.2891 899.0156 106.0703 899.2188 Q107.1953 899.5312 107.6328 899.7188 Q108.0703 899.9062 108.3203 900.2656 Q108.5703 900.625 108.5703 901.1719 Q108.5703 901.7031 108.2578 902.1719 Q107.9609 902.625 107.3828 902.8906 Q106.8047 903.1406 106.0703 903.1406 Q104.8516 903.1406 104.2109 902.6406 Q103.5859 902.125 103.4141 901.1406 Z" stroke="none" clip-path="url(#clipPath1)"/>
    </g>
    <g fill="silver" stroke="silver">
      <path d="M10.9219 902 L10.9219 893.4062 L14.1719 893.4062 Q15.0156 893.4062 15.4688 893.4844 Q16.1094 893.5938 16.5312 893.8906 Q16.9688 894.1875 17.2188 894.7188 Q17.4844 895.25 17.4844 895.8906 Q17.4844 896.9844 16.7812 897.75 Q16.0938 898.5 14.2656 898.5 L12.0625 898.5 L12.0625 902 L10.9219 902 ZM12.0625 897.5 L14.2812 897.5 Q15.3906 897.5 15.8438 897.0938 Q16.3125 896.6719 16.3125 895.9219 Q16.3125 895.3906 16.0312 895.0156 Q15.7656 894.625 15.3281 894.5 Q15.0312 894.4219 14.2656 894.4219 L12.0625 894.4219 L12.0625 897.5 ZM18.4102 898.8906 Q18.4102 897.1562 19.3633 896.3281 Q20.1602 895.6406 21.3164 895.6406 Q22.5977 895.6406 23.4102 896.4844 Q24.2383 897.3125 24.2383 898.7969 Q24.2383 900 23.8789 900.6875 Q23.5195 901.375 22.8164 901.7656 Q22.1289 902.1406 21.3164 902.1406 Q20.0195 902.1406 19.207 901.3125 Q18.4102 900.4688 18.4102 898.8906 ZM19.4883 898.8906 Q19.4883 900.0781 20.0039 900.6719 Q20.5352 901.2656 21.3164 901.2656 Q22.1133 901.2656 22.6289 900.6719 Q23.1445 900.0781 23.1445 898.8594 Q23.1445 897.7031 22.6133 897.1094 Q22.0977 896.5156 21.3164 896.5156 Q20.5352 896.5156 20.0039 897.1094 Q19.4883 897.6875 19.4883 898.8906 ZM26.6152 902 L24.709 895.7812 L25.8027 895.7812 L26.7871 899.375 L27.1621 900.7031 Q27.1934 900.6094 27.4902 899.4219 L28.4746 895.7812 L29.5527 895.7812 L30.4902 899.3906 L30.8027 900.5781 L31.1621 899.375 L32.2246 895.7812 L33.2559 895.7812 L31.3027 902 L30.209 902 L29.2246 898.2656 L28.9746 897.2188 L27.7246 902 L26.6152 902 ZM38.3906 900 L39.4844 900.125 Q39.2344 901.0781 38.5312 901.6094 Q37.8281 902.1406 36.75 902.1406 Q35.3906 902.1406 34.5781 901.2969 Q33.7812 900.4531 33.7812 898.9375 Q33.7812 897.375 34.5938 896.5156 Q35.4062 895.6406 36.6875 895.6406 Q37.9375 895.6406 38.7188 896.4844 Q39.5156 897.3281 39.5156 898.875 Q39.5156 898.9688 39.5156 899.1562 L34.875 899.1562 Q34.9375 900.1875 35.4531 900.7344 Q35.9688 901.2656 36.75 901.2656 Q37.3281 901.2656 37.7344 900.9688 Q38.1562 900.6562 38.3906 900 ZM34.9375 898.2969 L38.4062 898.2969 Q38.3438 897.5 38.0156 897.1094 Q37.5 896.5 36.7031 896.5 Q35.9688 896.5 35.4688 896.9844 Q34.9844 897.4688 34.9375 898.2969 ZM40.7988 902 L40.7988 895.7812 L41.752 895.7812 L41.752 896.7188 Q42.1113 896.0625 42.4082 895.8594 Q42.7207 895.6406 43.0957 895.6406 Q43.627 895.6406 44.1738 895.9688 L43.8145 896.9531 Q43.4238 896.7188 43.0488 896.7188 Q42.6895 896.7188 42.4082 896.9375 Q42.1426 897.1406 42.0332 897.5156 Q41.8457 898.0781 41.8457 898.7344 L41.8457 902 L40.7988 902 ZM49.0605 900 L50.1543 900.125 Q49.9043 901.0781 49.2012 901.6094 Q48.498 902.1406 47.4199 902.1406 Q46.0605 902.1406 45.248 901.2969 Q44.4512 900.4531 44.4512 898.9375 Q44.4512 897.375 45.2637 896.5156 Q46.0762 895.6406 47.3574 895.6406 Q48.6074 895.6406 49.3887 896.4844 Q50.1855 897.3281 50.1855 898.875 Q50.1855 898.9688 50.1855 899.1562 L45.5449 899.1562 Q45.6074 900.1875 46.123 900.7344 Q46.6387 901.2656 47.4199 901.2656 Q47.998 901.2656 48.4043 900.9688 Q48.8262 900.6562 49.0605 900 ZM45.6074 898.2969 L49.0762 898.2969 Q49.0137 897.5 48.6855 897.1094 Q48.1699 896.5 47.373 896.5 Q46.6387 896.5 46.1387 896.9844 Q45.6543 897.4688 45.6074 898.2969 ZM55.5156 902 L55.5156 901.2188 Q54.9219 902.1406 53.7812 902.1406 Q53.0312 902.1406 52.4062 901.7344 Q51.7812 901.3125 51.4375 900.5781 Q51.0938 899.8438 51.0938 898.8906 Q51.0938 897.9688 51.4062 897.2031 Q51.7188 896.4375 52.3438 896.0469 Q52.9688 895.6406 53.7344 895.6406 Q54.2969 895.6406 54.7344 895.875 Q55.1719 896.1094 55.4531 896.4844 L55.4531 893.4062 L56.5 893.4062 L56.5 902 L55.5156 902 ZM52.1875 898.8906 Q52.1875 900.0938 52.6875 900.6875 Q53.1875 901.2656 53.875 901.2656 Q54.5625 901.2656 55.0469 900.7031 Q55.5312 900.1406 55.5312 898.9844 Q55.5312 897.7031 55.0312 897.1094 Q54.5469 896.5156 53.8281 896.5156 Q53.125 896.5156 52.6562 897.0938 Q52.1875 897.6562 52.1875 898.8906 ZM62.4609 902 L61.4766 902 L61.4766 893.4062 L62.5391 893.4062 L62.5391 896.4688 Q63.2109 895.6406 64.2422 895.6406 Q64.8203 895.6406 65.3203 895.875 Q65.8359 896.0938 66.1641 896.5156 Q66.5078 896.9375 66.6953 897.5312 Q66.8828 898.125 66.8828 898.7969 Q66.8828 900.3906 66.0859 901.2656 Q65.2891 902.1406 64.1953 902.1406 Q63.0859 902.1406 62.4609 901.2188 L62.4609 902 ZM62.4453 898.8438 Q62.4453 899.9531 62.7578 900.4531 Q63.2578 901.2656 64.1016 901.2656 Q64.7891 901.2656 65.2891 900.6719 Q65.8047 900.0781 65.8047 898.875 Q65.8047 897.6562 65.3203 897.0781 Q64.8359 896.5 64.1484 896.5 Q63.4609 896.5 62.9453 897.1094 Q62.4453 897.7031 62.4453 898.8438 ZM68.1191 904.3906 L67.9941 903.4062 Q68.3379 903.5 68.6035 903.5 Q68.9473 903.5 69.1504 903.375 Q69.3691 903.2656 69.5098 903.0625 Q69.6035 902.8906 69.8379 902.2656 Q69.8535 902.1875 69.9316 902.0156 L67.5566 895.7812 L68.6973 895.7812 L69.9941 899.375 Q70.2441 900.0625 70.4473 900.8281 Q70.6348 900.0938 70.8848 899.4062 L72.2129 895.7812 L73.2598 895.7812 L70.9004 902.1094 Q70.5098 903.125 70.3066 903.5156 Q70.0254 904.0469 69.6504 904.2812 Q69.291 904.5312 68.791 904.5312 Q68.4941 904.5312 68.1191 904.3906 ZM77.4531 904.3906 L77.3281 903.4062 Q77.6719 903.5 77.9375 903.5 Q78.2812 903.5 78.4844 903.375 Q78.7031 903.2656 78.8438 903.0625 Q78.9375 902.8906 79.1719 902.2656 Q79.1875 902.1875 79.2656 902.0156 L76.8906 895.7812 L78.0312 895.7812 L79.3281 899.375 Q79.5781 900.0625 79.7812 900.8281 Q79.9688 900.0938 80.2188 899.4062 L81.5469 895.7812 L82.5938 895.7812 L80.2344 902.1094 Q79.8438 903.125 79.6406 903.5156 Q79.3594 904.0469 78.9844 904.2812 Q78.625 904.5312 78.125 904.5312 Q77.8281 904.5312 77.4531 904.3906 ZM83.6875 902 L83.6875 893.4062 L89.4844 893.4062 L89.4844 894.4219 L84.8281 894.4219 L84.8281 897.0781 L88.8594 897.0781 L88.8594 898.0938 L84.8281 898.0938 L84.8281 902 L83.6875 902 ZM90.8301 894.625 L90.8301 893.4062 L91.8926 893.4062 L91.8926 894.625 L90.8301 894.625 ZM90.8301 902 L90.8301 895.7812 L91.8926 895.7812 L91.8926 902 L90.8301 902 ZM93.4648 902 L93.4648 893.4062 L94.5273 893.4062 L94.5273 902 L93.4648 902 ZM100.4121 900 L101.5059 900.125 Q101.2559 901.0781 100.5527 901.6094 Q99.8496 902.1406 98.7715 902.1406 Q97.4121 902.1406 96.5996 901.2969 Q95.8027 900.4531 95.8027 898.9375 Q95.8027 897.375 96.6152 896.5156 Q97.4277 895.6406 98.709 895.6406 Q99.959 895.6406 100.7402 896.4844 Q101.5371 897.3281 101.5371 898.875 Q101.5371 898.9688 101.5371 899.1562 L96.8965 899.1562 Q96.959 900.1875 97.4746 900.7344 Q97.9902 901.2656 98.7715 901.2656 Q99.3496 901.2656 99.7559 900.9688 Q100.1777 900.6562 100.4121 900 ZM96.959 898.2969 L100.4277 898.2969 Q100.3652 897.5 100.0371 897.1094 Q99.5215 896.5 98.7246 896.5 Q97.9902 896.5 97.4902 896.9844 Q97.0059 897.4688 96.959 898.2969 ZM102.4141 900.1406 L103.4453 899.9844 Q103.5391 900.6094 103.9297 900.9375 Q104.3359 901.2656 105.0703 901.2656 Q105.7891 901.2656 106.1328 900.9844 Q106.4922 900.6875 106.4922 900.2812 Q106.4922 899.9219 106.1797 899.7188 Q105.9609 899.5781 105.1016 899.3594 Q103.9453 899.0625 103.4922 898.8594 Q103.0547 898.6406 102.8203 898.2656 Q102.5859 897.8906 102.5859 897.4219 Q102.5859 897.0156 102.7734 896.6562 Q102.9609 896.2969 103.2891 896.0625 Q103.5391 895.8906 103.9609 895.7656 Q104.3828 895.6406 104.8828 895.6406 Q105.6016 895.6406 106.1484 895.8594 Q106.7109 896.0625 106.9766 896.4219 Q107.2422 896.7812 107.3359 897.375 L106.3047 897.5156 Q106.2422 897.0469 105.8984 896.7812 Q105.5703 896.5 104.9453 896.5 Q104.2266 896.5 103.9141 896.75 Q103.6016 896.9844 103.6016 897.3125 Q103.6016 897.5156 103.7266 897.6719 Q103.8672 897.8438 104.1328 897.9531 Q104.2891 898.0156 105.0703 898.2188 Q106.1953 898.5312 106.6328 898.7188 Q107.0703 898.9062 107.3203 899.2656 Q107.5703 899.625 107.5703 900.1719 Q107.5703 900.7031 107.2578 901.1719 Q106.9609 901.625 106.3828 901.8906 Q105.8047 902.1406 105.0703 902.1406 Q103.8516 902.1406 103.2109 901.6406 Q102.5859 901.125 102.4141 900.1406 Z" stroke="none" clip-path="url(#clipPath1)"/>
    </g>
    <g fill="rgb(255,255,204)" transform="matrix(1.659,0,0,1.659,567.2112,-336.8119)" stroke="rgb(255,255,204)">
      <rect x="-292.7098" width="274" height="86.4599" y="407.9841" clip-path="url(#clipPath2)" stroke="none"/>
    </g>
    <g fill="gray" stroke-miterlimit="1.45" transform="matrix(1.659,0,0,1.659,567.2112,-336.8119)" stroke-linecap="butt" stroke="gray">
      <rect fill="none" x="-292.7098" width="274" height="86.4599" y="407.9841" clip-path="url(#clipPath2)"/>
      <text x="-194.7097" y="425.6088" clip-path="url(#clipPath2)" fill="black" font-family="'Inter'" stroke="none" xml:space="preserve">accessgroups</text>
      <line stroke-linecap="square" clip-path="url(#clipPath2)" fill="none" x1="-291" x2="-19" y1="432" y2="432" stroke-miterlimit="10"/>
      <image stroke-linecap="square" x="-288" y="435" transform="translate(-0.7098,0.5064)" clip-path="url(#clipPath3)" width="16" xlink:href="data:image/png;base64,iVBORw0KGgoAAAANSUhEUgAAABAAAAAQCAYAAAAf8/9hAAAA9UlEQVR4Xs2Rvw7B&#13;&#10;UBTGK/EwFjGYTN7CQ0iMBsO5PIKF5yCxkdja20ViYBS72xbBIKG+U9Vw6t8i8Uu+&#13;&#10;nNN7v+/c29ayfo2xWzlfU9/Tasfintek7ylsRCiAQqHgqyG+Vr2HoEulSOh5T/pT&#13;&#10;xNdOBqw0FVnx8076U8C0F1c/x+J+L/0pYDJiwL0G0p8QhlYGhnlgUxl1+yS89W3K&#13;&#10;y1zELYzfVUVdGEfVPE1D9MeraBi4VJC5CBHeGFdNjG52eD0ct7IsmUmIw7Nb2OOP&#13;&#10;5VBF+l6CwNRo1UBdQ0seKD1vQegEHTxHjVDbcv8jeN8un+y7qi73/psLIY8NaIob&#13;&#10;5F4AAAAASUVORK5CYII=" height="16" preserveAspectRatio="none" stroke-miterlimit="10"/>
    </g>
    <g stroke-miterlimit="1.45" font-size="11px" font-weight="bold" font-family="'Inter'" transform="matrix(1.659,0,0,1.659,567.2112,-336.8119)" stroke-linecap="butt">
      <text x="-266.7097" xml:space="preserve" y="449.1627" clip-path="url(#clipPath2)" stroke="none">accessgroup_id</text>
      <text x="-128.7097" xml:space="preserve" y="449.1627" clip-path="url(#clipPath2)" font-weight="normal" stroke="none">bigint unsigned</text>
      <text x="-266.7097" xml:space="preserve" y="468.4752" clip-path="url(#clipPath2)" stroke="none">accessgroupname</text>
      <text x="-128.7097" xml:space="preserve" y="468.4752" clip-path="url(#clipPath2)" font-weight="normal" stroke="none">varchar(255)</text>
      <text x="-266.7097" xml:space="preserve" y="487.7877" clip-path="url(#clipPath2)" stroke="none">authenticationsystem_id</text>
      <text x="-128.7097" xml:space="preserve" y="487.7877" clip-path="url(#clipPath2)" font-weight="normal" stroke="none">bigint unsigned</text>
    </g>
    <g fill="gray" transform="matrix(1.659,0,0,1.659,567.2112,-336.8119) translate(-0.7098,0.1314)" stroke="gray">
      <image x="-40" y="474" clip-path="url(#clipPath4)" width="16" xlink:href="data:image/png;base64,iVBORw0KGgoAAAANSUhEUgAAABAAAAAQCAYAAAAf8/9hAAAAi0lEQVR4XmNgGJ7A&#13;&#10;u32LoG/TjmNA/B8L/oiuHgWANTduP41FIxyj60EBPk07TqBrQMfoerCChoYGJqBh&#13;&#10;c9E1E2UAPs0EDcCmGZ2PrgcOcGkGiSOJHUPXBwb4NIPkwWLA2AHFErpeMPBt3DkD&#13;&#10;l2YQAMUOTs0g4Nu8cw4uzUSB0FWrmMGGAF1CsuYBBQD9OsYDT+FmggAAAABJRU5E&#13;&#10;rkJggg==" height="16" preserveAspectRatio="none"/>
    </g>
    <g fill="rgb(255,255,204)" transform="matrix(1.659,0,0,1.659,567.2112,-336.8119)" stroke="rgb(255,255,204)">
      <rect x="-331.0266" width="354" height="105.7724" y="576.8866" clip-path="url(#clipPath2)" stroke="none"/>
    </g>
    <g fill="gray" stroke-miterlimit="1.45" transform="matrix(1.659,0,0,1.659,567.2112,-336.8119)" stroke-linecap="butt" stroke="gray">
      <rect fill="none" x="-331.0266" width="354" height="105.7724" y="576.8866" clip-path="url(#clipPath2)"/>
      <text x="-255.0266" y="594.5113" clip-path="url(#clipPath2)" fill="black" font-family="'Inter'" stroke="none" xml:space="preserve">accessgroup_accessgroup_relations</text>
      <line stroke-linecap="square" clip-path="url(#clipPath2)" fill="none" x1="-330" x2="21" y1="601" y2="601" stroke-miterlimit="10"/>
      <image stroke-linecap="square" x="-327" y="604" transform="translate(-0.0266,0.409)" clip-path="url(#clipPath5)" width="16" xlink:href="data:image/png;base64,iVBORw0KGgoAAAANSUhEUgAAABAAAAAQCAYAAAAf8/9hAAAA9UlEQVR4Xs2Rvw7B&#13;&#10;UBTGK/EwFjGYTN7CQ0iMBsO5PIKF5yCxkdja20ViYBS72xbBIKG+U9Vw6t8i8Uu+&#13;&#10;nNN7v+/c29ayfo2xWzlfU9/Tasfintek7ylsRCiAQqHgqyG+Vr2HoEulSOh5T/pT&#13;&#10;xNdOBqw0FVnx8076U8C0F1c/x+J+L/0pYDJiwL0G0p8QhlYGhnlgUxl1+yS89W3K&#13;&#10;y1zELYzfVUVdGEfVPE1D9MeraBi4VJC5CBHeGFdNjG52eD0ct7IsmUmIw7Nb2OOP&#13;&#10;5VBF+l6CwNRo1UBdQ0seKD1vQegEHTxHjVDbcv8jeN8un+y7qi73/psLIY8NaIob&#13;&#10;5F4AAAAASUVORK5CYII=" height="16" preserveAspectRatio="none" stroke-miterlimit="10"/>
    </g>
    <g stroke-miterlimit="1.45" font-size="11px" font-weight="bold" font-family="'Inter'" transform="matrix(1.659,0,0,1.659,567.2112,-336.8119)" stroke-linecap="butt">
      <text x="-305.0266" xml:space="preserve" y="618.0652" clip-path="url(#clipPath2)" stroke="none">accessgroup_accessgroup_relation_id</text>
      <text x="-87.0266" xml:space="preserve" y="618.0652" clip-path="url(#clipPath2)" font-weight="normal" stroke="none">bigint unsigned</text>
      <text x="-305.0266" xml:space="preserve" y="637.3777" clip-path="url(#clipPath2)" stroke="none">accessgroup_id</text>
      <text x="-87.0266" xml:space="preserve" y="637.3777" clip-path="url(#clipPath2)" font-weight="normal" stroke="none">bigint unsigned</text>
    </g>
    <g fill="gray" transform="matrix(1.659,0,0,1.659,567.2112,-336.8119) translate(0.9734,0.7215)" stroke="gray">
      <image x="0" y="623" clip-path="url(#clipPath6)" width="16" xlink:href="data:image/png;base64,iVBORw0KGgoAAAANSUhEUgAAABAAAAAQCAYAAAAf8/9hAAAAi0lEQVR4XmNgGJ7A&#13;&#10;u32LoG/TjmNA/B8L/oiuHgWANTduP41FIxyj60EBPk07TqBrQMfoerCChoYGJqBh&#13;&#10;c9E1E2UAPs0EDcCmGZ2PrgcOcGkGiSOJHUPXBwb4NIPkwWLA2AHFErpeMPBt3DkD&#13;&#10;l2YQAMUOTs0g4Nu8cw4uzUSB0FWrmMGGAF1CsuYBBQD9OsYDT+FmggAAAABJRU5E&#13;&#10;rkJggg==" height="16" preserveAspectRatio="none"/>
    </g>
    <g stroke-miterlimit="1.45" font-size="11px" font-weight="bold" font-family="'Inter'" transform="matrix(1.659,0,0,1.659,567.2112,-336.8119)" stroke-linecap="butt">
      <text x="-305.0266" xml:space="preserve" y="656.6902" clip-path="url(#clipPath2)" stroke="none">accessgroupmember_id</text>
      <text x="-87.0266" xml:space="preserve" y="656.6902" clip-path="url(#clipPath2)" font-weight="normal" stroke="none">bigint unsigned</text>
    </g>
    <g fill="gray" transform="matrix(1.659,0,0,1.659,567.2112,-336.8119) translate(0.9734,0.034)" stroke="gray">
      <image x="0" y="643" clip-path="url(#clipPath7)" width="16" xlink:href="data:image/png;base64,iVBORw0KGgoAAAANSUhEUgAAABAAAAAQCAYAAAAf8/9hAAAAi0lEQVR4XmNgGJ7A&#13;&#10;u32LoG/TjmNA/B8L/oiuHgWANTduP41FIxyj60EBPk07TqBrQMfoerCChoYGJqBh&#13;&#10;c9E1E2UAPs0EDcCmGZ2PrgcOcGkGiSOJHUPXBwb4NIPkwWLA2AHFErpeMPBt3DkD&#13;&#10;l2YQAMUOTs0g4Nu8cw4uzUSB0FWrmMGGAF1CsuYBBQD9OsYDT+FmggAAAABJRU5E&#13;&#10;rkJggg==" height="16" preserveAspectRatio="none"/>
    </g>
    <g stroke-miterlimit="1.45" font-size="11px" font-family="'Inter'" transform="matrix(1.659,0,0,1.659,567.2112,-336.8119)" stroke-linecap="butt">
      <text x="-305.0266" xml:space="preserve" y="676.0027" clip-path="url(#clipPath2)" stroke="none">accessgroup_accessgroup_relations_key</text>
      <text x="-87.0266" xml:space="preserve" y="676.0027" clip-path="url(#clipPath2)" stroke="none">varchar(64)</text>
    </g>
    <g fill="rgb(255,255,204)" transform="matrix(1.659,0,0,1.659,567.2112,-336.8119)" stroke="rgb(255,255,204)">
      <rect x="75.1259" width="304" height="86.4599" y="408.3399" clip-path="url(#clipPath2)" stroke="none"/>
    </g>
    <g fill="gray" stroke-miterlimit="1.45" transform="matrix(1.659,0,0,1.659,567.2112,-336.8119)" stroke-linecap="butt" stroke="gray">
      <rect fill="none" x="75.1259" width="304" height="86.4599" y="408.3399" clip-path="url(#clipPath2)"/>
      <text x="150.1259" y="425.9646" clip-path="url(#clipPath2)" fill="black" font-family="'Inter'" stroke="none" xml:space="preserve">user_accessgroup_relations</text>
      <line stroke-linecap="square" clip-path="url(#clipPath2)" fill="none" x1="76" x2="378" y1="432" y2="432" stroke-miterlimit="10"/>
      <image stroke-linecap="square" x="79" y="435" transform="translate(0.1259,0.8622)" clip-path="url(#clipPath8)" width="16" xlink:href="data:image/png;base64,iVBORw0KGgoAAAANSUhEUgAAABAAAAAQCAYAAAAf8/9hAAAA9UlEQVR4Xs2Rvw7B&#13;&#10;UBTGK/EwFjGYTN7CQ0iMBsO5PIKF5yCxkdja20ViYBS72xbBIKG+U9Vw6t8i8Uu+&#13;&#10;nNN7v+/c29ayfo2xWzlfU9/Tasfintek7ylsRCiAQqHgqyG+Vr2HoEulSOh5T/pT&#13;&#10;xNdOBqw0FVnx8076U8C0F1c/x+J+L/0pYDJiwL0G0p8QhlYGhnlgUxl1+yS89W3K&#13;&#10;y1zELYzfVUVdGEfVPE1D9MeraBi4VJC5CBHeGFdNjG52eD0ct7IsmUmIw7Nb2OOP&#13;&#10;5VBF+l6CwNRo1UBdQ0seKD1vQegEHTxHjVDbcv8jeN8un+y7qi73/psLIY8NaIob&#13;&#10;5F4AAAAASUVORK5CYII=" height="16" preserveAspectRatio="none" stroke-miterlimit="10"/>
    </g>
    <g stroke-miterlimit="1.45" font-size="11px" font-weight="bold" font-family="'Inter'" transform="matrix(1.659,0,0,1.659,567.2112,-336.8119)" stroke-linecap="butt">
      <text x="101.1259" xml:space="preserve" y="449.5185" clip-path="url(#clipPath2)" stroke="none">user_accessgroup_relation_id</text>
      <text x="269.1259" xml:space="preserve" y="449.5185" clip-path="url(#clipPath2)" font-weight="normal" stroke="none">bigint unsigned</text>
      <text x="101.1259" xml:space="preserve" y="468.831" clip-path="url(#clipPath2)" stroke="none">user_id</text>
      <text x="269.1259" xml:space="preserve" y="468.831" clip-path="url(#clipPath2)" font-weight="normal" stroke="none">bigint unsigned</text>
    </g>
    <g fill="gray" transform="matrix(1.659,0,0,1.659,567.2112,-336.8119) translate(0.1259,0.1747)" stroke="gray">
      <image x="357" y="455" clip-path="url(#clipPath9)" width="16" xlink:href="data:image/png;base64,iVBORw0KGgoAAAANSUhEUgAAABAAAAAQCAYAAAAf8/9hAAAAi0lEQVR4XmNgGJ7A&#13;&#10;u32LoG/TjmNA/B8L/oiuHgWANTduP41FIxyj60EBPk07TqBrQMfoerCChoYGJqBh&#13;&#10;c9E1E2UAPs0EDcCmGZ2PrgcOcGkGiSOJHUPXBwb4NIPkwWLA2AHFErpeMPBt3DkD&#13;&#10;l2YQAMUOTs0g4Nu8cw4uzUSB0FWrmMGGAF1CsuYBBQD9OsYDT+FmggAAAABJRU5E&#13;&#10;rkJggg==" height="16" preserveAspectRatio="none"/>
    </g>
    <g stroke-miterlimit="1.45" font-size="11px" font-weight="bold" font-family="'Inter'" transform="matrix(1.659,0,0,1.659,567.2112,-336.8119)" stroke-linecap="butt">
      <text x="101.1259" xml:space="preserve" y="488.1435" clip-path="url(#clipPath2)" stroke="none">accessgroup_id</text>
      <text x="269.1259" xml:space="preserve" y="488.1435" clip-path="url(#clipPath2)" font-weight="normal" stroke="none">bigint unsigned</text>
    </g>
    <g fill="gray" transform="matrix(1.659,0,0,1.659,567.2112,-336.8119) translate(0.1259,0.4872)" stroke="gray">
      <image x="357" y="474" clip-path="url(#clipPath10)" width="16" xlink:href="data:image/png;base64,iVBORw0KGgoAAAANSUhEUgAAABAAAAAQCAYAAAAf8/9hAAAAi0lEQVR4XmNgGJ7A&#13;&#10;u32LoG/TjmNA/B8L/oiuHgWANTduP41FIxyj60EBPk07TqBrQMfoerCChoYGJqBh&#13;&#10;c9E1E2UAPs0EDcCmGZ2PrgcOcGkGiSOJHUPXBwb4NIPkwWLA2AHFErpeMPBt3DkD&#13;&#10;l2YQAMUOTs0g4Nu8cw4uzUSB0FWrmMGGAF1CsuYBBQD9OsYDT+FmggAAAABJRU5E&#13;&#10;rkJggg==" height="16" preserveAspectRatio="none"/>
    </g>
    <g fill="rgb(255,255,204)" transform="matrix(1.659,0,0,1.659,567.2112,-336.8119)" stroke="rgb(255,255,204)">
      <rect x="584.3" width="185" height="86.4599" y="607.6168" clip-path="url(#clipPath2)" stroke="none"/>
    </g>
    <g fill="gray" stroke-miterlimit="1.45" transform="matrix(1.659,0,0,1.659,567.2112,-336.8119)" stroke-linecap="butt" stroke="gray">
      <rect fill="none" x="584.3" width="185" height="86.4599" y="607.6168" clip-path="url(#clipPath2)"/>
      <text x="658.3" y="625.2415" clip-path="url(#clipPath2)" fill="black" font-family="'Inter'" stroke="none" xml:space="preserve">wapps</text>
      <line stroke-linecap="square" clip-path="url(#clipPath2)" fill="none" x1="585" x2="768" y1="632" y2="632" stroke-miterlimit="10"/>
      <image stroke-linecap="square" x="588" y="635" transform="translate(0.3,0.1392)" clip-path="url(#clipPath11)" width="16" xlink:href="data:image/png;base64,iVBORw0KGgoAAAANSUhEUgAAABAAAAAQCAYAAAAf8/9hAAAA9UlEQVR4Xs2Rvw7B&#13;&#10;UBTGK/EwFjGYTN7CQ0iMBsO5PIKF5yCxkdja20ViYBS72xbBIKG+U9Vw6t8i8Uu+&#13;&#10;nNN7v+/c29ayfo2xWzlfU9/Tasfintek7ylsRCiAQqHgqyG+Vr2HoEulSOh5T/pT&#13;&#10;xNdOBqw0FVnx8076U8C0F1c/x+J+L/0pYDJiwL0G0p8QhlYGhnlgUxl1+yS89W3K&#13;&#10;y1zELYzfVUVdGEfVPE1D9MeraBi4VJC5CBHeGFdNjG52eD0ct7IsmUmIw7Nb2OOP&#13;&#10;5VBF+l6CwNRo1UBdQ0seKD1vQegEHTxHjVDbcv8jeN8un+y7qi73/psLIY8NaIob&#13;&#10;5F4AAAAASUVORK5CYII=" height="16" preserveAspectRatio="none" stroke-miterlimit="10"/>
    </g>
    <g stroke-miterlimit="1.45" font-size="11px" font-weight="bold" font-family="'Inter'" transform="matrix(1.659,0,0,1.659,567.2112,-336.8119)" stroke-linecap="butt">
      <text x="610.3" xml:space="preserve" y="648.7954" clip-path="url(#clipPath2)" stroke="none">wapp_id</text>
      <text x="660.3" xml:space="preserve" y="648.7954" clip-path="url(#clipPath2)" font-weight="normal" stroke="none">bigint unsigned</text>
      <text x="610.3" xml:space="preserve" y="668.1079" clip-path="url(#clipPath2)" stroke="none">name</text>
      <text x="660.3" xml:space="preserve" y="668.1079" clip-path="url(#clipPath2)" font-weight="normal" stroke="none">varchar(255)</text>
      <text x="610.3" xml:space="preserve" y="687.4204" clip-path="url(#clipPath2)" stroke="none">visible</text>
      <text x="660.3" xml:space="preserve" y="687.4204" clip-path="url(#clipPath2)" font-weight="normal" stroke="none">tinyint(1) unsigned</text>
    </g>
    <g fill="rgb(255,255,204)" transform="matrix(1.659,0,0,1.659,567.2112,-336.8119)" stroke="rgb(255,255,204)">
      <rect x="558.5787" width="234" height="86.4599" y="213.0132" clip-path="url(#clipPath2)" stroke="none"/>
    </g>
    <g fill="gray" stroke-miterlimit="1.45" transform="matrix(1.659,0,0,1.659,567.2112,-336.8119)" stroke-linecap="butt" stroke="gray">
      <rect fill="none" x="558.5787" width="234" height="86.4599" y="213.0132" clip-path="url(#clipPath2)"/>
      <text x="625.5787" y="230.6379" clip-path="url(#clipPath2)" fill="black" font-family="'Inter'" stroke="none" xml:space="preserve">servicetowerinfos</text>
      <line stroke-linecap="square" clip-path="url(#clipPath2)" fill="none" x1="559" x2="791" y1="237" y2="237" stroke-miterlimit="10"/>
      <image stroke-linecap="square" x="562" y="240" transform="translate(0.5787,0.5355)" clip-path="url(#clipPath12)" width="16" xlink:href="data:image/png;base64,iVBORw0KGgoAAAANSUhEUgAAABAAAAAQCAYAAAAf8/9hAAAA9UlEQVR4Xs2Rvw7B&#13;&#10;UBTGK/EwFjGYTN7CQ0iMBsO5PIKF5yCxkdja20ViYBS72xbBIKG+U9Vw6t8i8Uu+&#13;&#10;nNN7v+/c29ayfo2xWzlfU9/Tasfintek7ylsRCiAQqHgqyG+Vr2HoEulSOh5T/pT&#13;&#10;xNdOBqw0FVnx8076U8C0F1c/x+J+L/0pYDJiwL0G0p8QhlYGhnlgUxl1+yS89W3K&#13;&#10;y1zELYzfVUVdGEfVPE1D9MeraBi4VJC5CBHeGFdNjG52eD0ct7IsmUmIw7Nb2OOP&#13;&#10;5VBF+l6CwNRo1UBdQ0seKD1vQegEHTxHjVDbcv8jeN8un+y7qi73/psLIY8NaIob&#13;&#10;5F4AAAAASUVORK5CYII=" height="16" preserveAspectRatio="none" stroke-miterlimit="10"/>
    </g>
    <g stroke-miterlimit="1.45" font-size="11px" font-weight="bold" font-family="'Inter'" transform="matrix(1.659,0,0,1.659,567.2112,-336.8119)" stroke-linecap="butt">
      <text x="584.5787" xml:space="preserve" y="254.1918" clip-path="url(#clipPath2)" stroke="none">servicetowerinfo_id</text>
      <text x="698.5787" xml:space="preserve" y="254.1918" clip-path="url(#clipPath2)" font-weight="normal" stroke="none">bigint unsigned</text>
      <text x="584.5787" xml:space="preserve" y="273.5043" clip-path="url(#clipPath2)" stroke="none">servername</text>
      <text x="698.5787" xml:space="preserve" y="273.5043" clip-path="url(#clipPath2)" font-weight="normal" stroke="none">varchar(255)</text>
      <text x="584.5787" xml:space="preserve" y="292.8168" clip-path="url(#clipPath2)" stroke="none">publickey</text>
      <text x="698.5787" xml:space="preserve" y="292.8168" clip-path="url(#clipPath2)" font-weight="normal" stroke="none">text</text>
    </g>
    <g fill="rgb(255,255,204)" transform="matrix(1.659,0,0,1.659,567.2112,-336.8119)" stroke="rgb(255,255,204)">
      <rect x="549.9246" width="250" height="86.4599" y="409.4604" clip-path="url(#clipPath2)" stroke="none"/>
    </g>
    <g fill="gray" stroke-miterlimit="1.45" transform="matrix(1.659,0,0,1.659,567.2112,-336.8119)" stroke-linecap="butt" stroke="gray">
      <rect fill="none" x="549.9246" width="250" height="86.4599" y="409.4604" clip-path="url(#clipPath2)"/>
      <text x="659.9246" y="427.0851" clip-path="url(#clipPath2)" fill="black" font-family="'Inter'" stroke="none" xml:space="preserve">users</text>
      <line stroke-linecap="square" clip-path="url(#clipPath2)" fill="none" x1="550" x2="798" y1="433" y2="433" stroke-miterlimit="10"/>
      <image stroke-linecap="square" x="553" y="436" transform="translate(0.9246,0.9827)" clip-path="url(#clipPath13)" width="16" xlink:href="data:image/png;base64,iVBORw0KGgoAAAANSUhEUgAAABAAAAAQCAYAAAAf8/9hAAAA9UlEQVR4Xs2Rvw7B&#13;&#10;UBTGK/EwFjGYTN7CQ0iMBsO5PIKF5yCxkdja20ViYBS72xbBIKG+U9Vw6t8i8Uu+&#13;&#10;nNN7v+/c29ayfo2xWzlfU9/Tasfintek7ylsRCiAQqHgqyG+Vr2HoEulSOh5T/pT&#13;&#10;xNdOBqw0FVnx8076U8C0F1c/x+J+L/0pYDJiwL0G0p8QhlYGhnlgUxl1+yS89W3K&#13;&#10;y1zELYzfVUVdGEfVPE1D9MeraBi4VJC5CBHeGFdNjG52eD0ct7IsmUmIw7Nb2OOP&#13;&#10;5VBF+l6CwNRo1UBdQ0seKD1vQegEHTxHjVDbcv8jeN8un+y7qi73/psLIY8NaIob&#13;&#10;5F4AAAAASUVORK5CYII=" height="16" preserveAspectRatio="none" stroke-miterlimit="10"/>
    </g>
    <g stroke-miterlimit="1.45" font-size="11px" font-weight="bold" font-family="'Inter'" transform="matrix(1.659,0,0,1.659,567.2112,-336.8119)" stroke-linecap="butt">
      <text x="575.9246" xml:space="preserve" y="450.639" clip-path="url(#clipPath2)" stroke="none">user_id</text>
      <text x="689.9246" xml:space="preserve" y="450.639" clip-path="url(#clipPath2)" font-weight="normal" stroke="none">bigint unsigned</text>
      <text x="575.9246" xml:space="preserve" y="469.9515" clip-path="url(#clipPath2)" stroke="none">servicetowerinfo_id</text>
      <text x="689.9246" xml:space="preserve" y="469.9515" clip-path="url(#clipPath2)" font-weight="normal" stroke="none">bigint unsigned</text>
    </g>
    <g fill="gray" transform="matrix(1.659,0,0,1.659,567.2112,-336.8119) translate(0.9246,0.2952)" stroke="gray">
      <image x="777" y="456" clip-path="url(#clipPath14)" width="16" xlink:href="data:image/png;base64,iVBORw0KGgoAAAANSUhEUgAAABAAAAAQCAYAAAAf8/9hAAAAi0lEQVR4XmNgGJ7A&#13;&#10;u32LoG/TjmNA/B8L/oiuHgWANTduP41FIxyj60EBPk07TqBrQMfoerCChoYGJqBh&#13;&#10;c9E1E2UAPs0EDcCmGZ2PrgcOcGkGiSOJHUPXBwb4NIPkwWLA2AHFErpeMPBt3DkD&#13;&#10;l2YQAMUOTs0g4Nu8cw4uzUSB0FWrmMGGAF1CsuYBBQD9OsYDT+FmggAAAABJRU5E&#13;&#10;rkJggg==" height="16" preserveAspectRatio="none"/>
    </g>
    <g stroke-miterlimit="1.45" font-size="11px" font-weight="bold" font-family="'Inter'" transform="matrix(1.659,0,0,1.659,567.2112,-336.8119)" stroke-linecap="butt">
      <text x="575.9246" xml:space="preserve" y="489.264" clip-path="url(#clipPath2)" stroke="none">username</text>
      <text x="689.9246" xml:space="preserve" y="489.264" clip-path="url(#clipPath2)" font-weight="normal" stroke="none">varchar(128)</text>
    </g>
    <g fill="rgb(255,255,204)" transform="matrix(1.659,0,0,1.659,567.2112,-336.8119)" stroke="rgb(255,255,204)">
      <rect x="880.7591" width="241" height="183.0224" y="560.1735" clip-path="url(#clipPath2)" stroke="none"/>
    </g>
    <g fill="gray" stroke-miterlimit="1.45" transform="matrix(1.659,0,0,1.659,567.2112,-336.8119)" stroke-linecap="butt" stroke="gray">
      <rect fill="none" x="880.7591" width="241" height="183.0224" y="560.1735" clip-path="url(#clipPath2)"/>
      <text x="977.2591" y="577.7982" clip-path="url(#clipPath2)" fill="black" font-family="'Inter'" stroke="none" xml:space="preserve">sessions</text>
      <line stroke-linecap="square" clip-path="url(#clipPath2)" fill="none" x1="881" x2="1120" y1="584" y2="584" stroke-miterlimit="10"/>
      <image stroke-linecap="square" x="884" y="587" transform="translate(0.7591,0.6959)" clip-path="url(#clipPath15)" width="16" xlink:href="data:image/png;base64,iVBORw0KGgoAAAANSUhEUgAAABAAAAAQCAYAAAAf8/9hAAAA9UlEQVR4Xs2Rvw7B&#13;&#10;UBTGK/EwFjGYTN7CQ0iMBsO5PIKF5yCxkdja20ViYBS72xbBIKG+U9Vw6t8i8Uu+&#13;&#10;nNN7v+/c29ayfo2xWzlfU9/Tasfintek7ylsRCiAQqHgqyG+Vr2HoEulSOh5T/pT&#13;&#10;xNdOBqw0FVnx8076U8C0F1c/x+J+L/0pYDJiwL0G0p8QhlYGhnlgUxl1+yS89W3K&#13;&#10;y1zELYzfVUVdGEfVPE1D9MeraBi4VJC5CBHeGFdNjG52eD0ct7IsmUmIw7Nb2OOP&#13;&#10;5VBF+l6CwNRo1UBdQ0seKD1vQegEHTxHjVDbcv8jeN8un+y7qi73/psLIY8NaIob&#13;&#10;5F4AAAAASUVORK5CYII=" height="16" preserveAspectRatio="none" stroke-miterlimit="10"/>
    </g>
    <g stroke-miterlimit="1.45" font-size="11px" font-weight="bold" font-family="'Inter'" transform="matrix(1.659,0,0,1.659,567.2112,-336.8119)" stroke-linecap="butt">
      <text x="906.7591" xml:space="preserve" y="601.3521" clip-path="url(#clipPath2)" stroke="none">session_id</text>
      <text x="996.7591" xml:space="preserve" y="601.3521" clip-path="url(#clipPath2)" font-weight="normal" stroke="none">bigint unsigned</text>
      <text x="906.7591" xml:space="preserve" y="620.6646" clip-path="url(#clipPath2)" stroke="none">user_id</text>
      <text x="996.7591" xml:space="preserve" y="620.6646" clip-path="url(#clipPath2)" font-weight="normal" stroke="none">bigint unsigned</text>
    </g>
    <g fill="gray" transform="matrix(1.659,0,0,1.659,567.2112,-336.8119) translate(0.7591,0.0084)" stroke="gray">
      <image x="1099" y="607" clip-path="url(#clipPath16)" width="16" xlink:href="data:image/png;base64,iVBORw0KGgoAAAANSUhEUgAAABAAAAAQCAYAAAAf8/9hAAAAi0lEQVR4XmNgGJ7A&#13;&#10;u32LoG/TjmNA/B8L/oiuHgWANTduP41FIxyj60EBPk07TqBrQMfoerCChoYGJqBh&#13;&#10;c9E1E2UAPs0EDcCmGZ2PrgcOcGkGiSOJHUPXBwb4NIPkwWLA2AHFErpeMPBt3DkD&#13;&#10;l2YQAMUOTs0g4Nu8cw4uzUSB0FWrmMGGAF1CsuYBBQD9OsYDT+FmggAAAABJRU5E&#13;&#10;rkJggg==" height="16" preserveAspectRatio="none"/>
    </g>
    <g stroke-miterlimit="1.45" font-size="11px" font-weight="bold" font-family="'Inter'" transform="matrix(1.659,0,0,1.659,567.2112,-336.8119)" stroke-linecap="butt">
      <text x="906.7591" xml:space="preserve" y="639.9771" clip-path="url(#clipPath2)" stroke="none">wapp_id</text>
      <text x="996.7591" xml:space="preserve" y="639.9771" clip-path="url(#clipPath2)" font-weight="normal" stroke="none">bigint unsigned</text>
    </g>
    <g fill="gray" transform="matrix(1.659,0,0,1.659,567.2112,-336.8119) translate(0.7591,0.3209)" stroke="gray">
      <image x="1099" y="626" clip-path="url(#clipPath17)" width="16" xlink:href="data:image/png;base64,iVBORw0KGgoAAAANSUhEUgAAABAAAAAQCAYAAAAf8/9hAAAAi0lEQVR4XmNgGJ7A&#13;&#10;u32LoG/TjmNA/B8L/oiuHgWANTduP41FIxyj60EBPk07TqBrQMfoerCChoYGJqBh&#13;&#10;c9E1E2UAPs0EDcCmGZ2PrgcOcGkGiSOJHUPXBwb4NIPkwWLA2AHFErpeMPBt3DkD&#13;&#10;l2YQAMUOTs0g4Nu8cw4uzUSB0FWrmMGGAF1CsuYBBQD9OsYDT+FmggAAAABJRU5E&#13;&#10;rkJggg==" height="16" preserveAspectRatio="none"/>
    </g>
    <g stroke-miterlimit="1.45" font-size="11px" font-weight="bold" font-family="'Inter'" transform="matrix(1.659,0,0,1.659,567.2112,-336.8119)" stroke-linecap="butt">
      <text x="906.7591" xml:space="preserve" y="659.2896" clip-path="url(#clipPath2)" stroke="none">sessiontoken</text>
      <text x="996.7591" xml:space="preserve" y="659.2896" clip-path="url(#clipPath2)" font-weight="normal" stroke="none">varchar(128)</text>
      <text x="906.7591" xml:space="preserve" y="678.6021" clip-path="url(#clipPath2)" stroke="none">remoteaddress</text>
      <text x="996.7591" xml:space="preserve" y="678.6021" clip-path="url(#clipPath2)" font-weight="normal" stroke="none">varchar(39)</text>
      <text x="906.7591" xml:space="preserve" y="697.9146" clip-path="url(#clipPath2)" stroke="none">sessionstart</text>
      <text x="996.7591" xml:space="preserve" y="697.9146" clip-path="url(#clipPath2)" font-weight="normal" stroke="none">datetime</text>
      <text x="906.7591" xml:space="preserve" y="717.2271" clip-path="url(#clipPath2)" stroke="none">lastactive</text>
      <text x="996.7591" xml:space="preserve" y="717.2271" clip-path="url(#clipPath2)" font-weight="normal" stroke="none">datetime</text>
      <text x="906.7591" xml:space="preserve" y="736.5396" clip-path="url(#clipPath2)" stroke="none">persistent</text>
      <text x="996.7591" xml:space="preserve" y="736.5396" clip-path="url(#clipPath2)" font-weight="normal" stroke="none">tinyint(1) unsigned</text>
    </g>
    <g fill="rgb(255,255,204)" transform="matrix(1.659,0,0,1.659,567.2112,-336.8119)" stroke="rgb(255,255,204)">
      <rect x="881.285" width="194" height="125.0849" y="217.8041" clip-path="url(#clipPath2)" stroke="none"/>
    </g>
    <g fill="gray" stroke-miterlimit="1.45" transform="matrix(1.659,0,0,1.659,567.2112,-336.8119)" stroke-linecap="butt" stroke="gray">
      <rect fill="none" x="881.285" width="194" height="125.0849" y="217.8041" clip-path="url(#clipPath2)"/>
      <text x="954.785" y="235.4288" clip-path="url(#clipPath2)" fill="black" font-family="'Inter'" stroke="none" xml:space="preserve">versions</text>
      <line stroke-linecap="square" clip-path="url(#clipPath2)" fill="none" x1="882" x2="1074" y1="242" y2="242" stroke-miterlimit="10"/>
      <image stroke-linecap="square" x="885" y="245" transform="translate(0.285,0.3265)" clip-path="url(#clipPath18)" width="16" xlink:href="data:image/png;base64,iVBORw0KGgoAAAANSUhEUgAAABAAAAAQCAYAAAAf8/9hAAAA9UlEQVR4Xs2Rvw7B&#13;&#10;UBTGK/EwFjGYTN7CQ0iMBsO5PIKF5yCxkdja20ViYBS72xbBIKG+U9Vw6t8i8Uu+&#13;&#10;nNN7v+/c29ayfo2xWzlfU9/Tasfintek7ylsRCiAQqHgqyG+Vr2HoEulSOh5T/pT&#13;&#10;xNdOBqw0FVnx8076U8C0F1c/x+J+L/0pYDJiwL0G0p8QhlYGhnlgUxl1+yS89W3K&#13;&#10;y1zELYzfVUVdGEfVPE1D9MeraBi4VJC5CBHeGFdNjG52eD0ct7IsmUmIw7Nb2OOP&#13;&#10;5VBF+l6CwNRo1UBdQ0seKD1vQegEHTxHjVDbcv8jeN8un+y7qi73/psLIY8NaIob&#13;&#10;5F4AAAAASUVORK5CYII=" height="16" preserveAspectRatio="none" stroke-miterlimit="10"/>
    </g>
    <g stroke-miterlimit="1.45" font-size="11px" font-weight="bold" font-family="'Inter'" transform="matrix(1.659,0,0,1.659,567.2112,-336.8119)" stroke-linecap="butt">
      <text x="907.285" xml:space="preserve" y="258.9827" clip-path="url(#clipPath2)" stroke="none">version_id</text>
      <text x="981.285" xml:space="preserve" y="258.9827" clip-path="url(#clipPath2)" font-weight="normal" stroke="none">bigint unsigned</text>
      <text x="907.285" xml:space="preserve" y="278.2952" clip-path="url(#clipPath2)" stroke="none">version</text>
      <text x="981.285" xml:space="preserve" y="278.2952" clip-path="url(#clipPath2)" font-weight="normal" stroke="none">varchar(64)</text>
      <text x="907.285" xml:space="preserve" y="297.6077" clip-path="url(#clipPath2)" stroke="none">description</text>
      <text x="981.285" xml:space="preserve" y="297.6077" clip-path="url(#clipPath2)" font-weight="normal" stroke="none">varchar(1024)</text>
      <text x="907.285" xml:space="preserve" y="316.9202" clip-path="url(#clipPath2)" stroke="none">developer</text>
      <text x="981.285" xml:space="preserve" y="316.9202" clip-path="url(#clipPath2)" font-weight="normal" stroke="none">varchar(64)</text>
      <text x="907.285" xml:space="preserve" y="336.2327" clip-path="url(#clipPath2)" stroke="none">revisiondate</text>
      <text x="981.285" xml:space="preserve" y="336.2327" clip-path="url(#clipPath2)" font-weight="normal" stroke="none">date</text>
    </g>
    <g fill="rgb(255,255,204)" transform="matrix(1.659,0,0,1.659,567.2112,-336.8119)" stroke="rgb(255,255,204)">
      <rect x="-293.1526" width="273" height="67.1474" y="286.3686" clip-path="url(#clipPath2)" stroke="none"/>
    </g>
    <g fill="gray" stroke-miterlimit="1.45" transform="matrix(1.659,0,0,1.659,567.2112,-336.8119)" stroke-linecap="butt" stroke="gray">
      <rect fill="none" x="-293.1526" width="273" height="67.1474" y="286.3686" clip-path="url(#clipPath2)"/>
      <text x="-220.1526" y="303.9933" clip-path="url(#clipPath2)" fill="black" font-family="'Inter'" stroke="none" xml:space="preserve">authenticationsystems</text>
      <line stroke-linecap="square" clip-path="url(#clipPath2)" fill="none" x1="-292" x2="-21" y1="310" y2="310" stroke-miterlimit="10"/>
      <image stroke-linecap="square" x="-289" y="313" transform="translate(-0.1526,0.8909)" clip-path="url(#clipPath19)" width="16" xlink:href="data:image/png;base64,iVBORw0KGgoAAAANSUhEUgAAABAAAAAQCAYAAAAf8/9hAAAA9UlEQVR4Xs2Rvw7B&#13;&#10;UBTGK/EwFjGYTN7CQ0iMBsO5PIKF5yCxkdja20ViYBS72xbBIKG+U9Vw6t8i8Uu+&#13;&#10;nNN7v+/c29ayfo2xWzlfU9/Tasfintek7ylsRCiAQqHgqyG+Vr2HoEulSOh5T/pT&#13;&#10;xNdOBqw0FVnx8076U8C0F1c/x+J+L/0pYDJiwL0G0p8QhlYGhnlgUxl1+yS89W3K&#13;&#10;y1zELYzfVUVdGEfVPE1D9MeraBi4VJC5CBHeGFdNjG52eD0ct7IsmUmIw7Nb2OOP&#13;&#10;5VBF+l6CwNRo1UBdQ0seKD1vQegEHTxHjVDbcv8jeN8un+y7qi73/psLIY8NaIob&#13;&#10;5F4AAAAASUVORK5CYII=" height="16" preserveAspectRatio="none" stroke-miterlimit="10"/>
    </g>
    <g stroke-miterlimit="1.45" font-size="11px" font-weight="bold" font-family="'Inter'" transform="matrix(1.659,0,0,1.659,567.2112,-336.8119)" stroke-linecap="butt">
      <text x="-267.1526" xml:space="preserve" y="327.5472" clip-path="url(#clipPath2)" stroke="none">authenticationsystem_id</text>
      <text x="-114.1526" xml:space="preserve" y="327.5472" clip-path="url(#clipPath2)" font-weight="normal" stroke="none">bigint unsigned</text>
      <text x="-267.1526" xml:space="preserve" y="346.8597" clip-path="url(#clipPath2)" stroke="none">authenticationsystemname</text>
      <text x="-114.1526" xml:space="preserve" y="346.8597" clip-path="url(#clipPath2)" font-weight="normal" stroke="none">varchar(255)</text>
    </g>
    <g fill="rgb(255,255,204)" transform="matrix(1.659,0,0,1.659,567.2112,-336.8119)" stroke="rgb(255,255,204)">
      <rect x="86.3725" width="266" height="183.0224" y="558.2554" clip-path="url(#clipPath2)" stroke="none"/>
    </g>
    <g fill="gray" stroke-miterlimit="1.45" transform="matrix(1.659,0,0,1.659,567.2112,-336.8119)" stroke-linecap="butt" stroke="gray">
      <rect fill="none" x="86.3725" width="266" height="183.0224" y="558.2554" clip-path="url(#clipPath2)"/>
      <text x="177.8725" y="575.8801" clip-path="url(#clipPath2)" fill="black" font-family="'Inter'" stroke="none" xml:space="preserve">contentaccess</text>
      <line stroke-linecap="square" clip-path="url(#clipPath2)" fill="none" x1="87" x2="351" y1="582" y2="582" stroke-miterlimit="10"/>
      <image stroke-linecap="square" x="90" y="585" transform="translate(0.3725,0.7778)" clip-path="url(#clipPath20)" width="16" xlink:href="data:image/png;base64,iVBORw0KGgoAAAANSUhEUgAAABAAAAAQCAYAAAAf8/9hAAAA9UlEQVR4Xs2Rvw7B&#13;&#10;UBTGK/EwFjGYTN7CQ0iMBsO5PIKF5yCxkdja20ViYBS72xbBIKG+U9Vw6t8i8Uu+&#13;&#10;nNN7v+/c29ayfo2xWzlfU9/Tasfintek7ylsRCiAQqHgqyG+Vr2HoEulSOh5T/pT&#13;&#10;xNdOBqw0FVnx8076U8C0F1c/x+J+L/0pYDJiwL0G0p8QhlYGhnlgUxl1+yS89W3K&#13;&#10;y1zELYzfVUVdGEfVPE1D9MeraBi4VJC5CBHeGFdNjG52eD0ct7IsmUmIw7Nb2OOP&#13;&#10;5VBF+l6CwNRo1UBdQ0seKD1vQegEHTxHjVDbcv8jeN8un+y7qi73/psLIY8NaIob&#13;&#10;5F4AAAAASUVORK5CYII=" height="16" preserveAspectRatio="none" stroke-miterlimit="10"/>
    </g>
    <g stroke-miterlimit="1.45" font-size="11px" font-weight="bold" font-family="'Inter'" transform="matrix(1.659,0,0,1.659,567.2112,-336.8119)" stroke-linecap="butt">
      <text x="112.3725" xml:space="preserve" y="599.434" clip-path="url(#clipPath2)" stroke="none">contentaccess_id</text>
      <text x="227.3725" xml:space="preserve" y="599.434" clip-path="url(#clipPath2)" font-weight="normal" stroke="none">bigint unsigned</text>
      <text x="112.3725" xml:space="preserve" y="618.7465" clip-path="url(#clipPath2)" stroke="none">wapp_id</text>
      <text x="227.3725" xml:space="preserve" y="618.7465" clip-path="url(#clipPath2)" font-weight="normal" stroke="none">bigint unsigned</text>
    </g>
    <g fill="gray" transform="matrix(1.659,0,0,1.659,567.2112,-336.8119) translate(0.3725,0.0903)" stroke="gray">
      <image x="330" y="605" clip-path="url(#clipPath21)" width="16" xlink:href="data:image/png;base64,iVBORw0KGgoAAAANSUhEUgAAABAAAAAQCAYAAAAf8/9hAAAAi0lEQVR4XmNgGJ7A&#13;&#10;u32LoG/TjmNA/B8L/oiuHgWANTduP41FIxyj60EBPk07TqBrQMfoerCChoYGJqBh&#13;&#10;c9E1E2UAPs0EDcCmGZ2PrgcOcGkGiSOJHUPXBwb4NIPkwWLA2AHFErpeMPBt3DkD&#13;&#10;l2YQAMUOTs0g4Nu8cw4uzUSB0FWrmMGGAF1CsuYBBQD9OsYDT+FmggAAAABJRU5E&#13;&#10;rkJggg==" height="16" preserveAspectRatio="none"/>
    </g>
    <g stroke-miterlimit="1.45" font-size="11px" font-weight="bold" font-family="'Inter'" transform="matrix(1.659,0,0,1.659,567.2112,-336.8119)" stroke-linecap="butt">
      <text x="112.3725" xml:space="preserve" y="638.059" clip-path="url(#clipPath2)" stroke="none">accessgroup_id</text>
      <text x="227.3725" xml:space="preserve" y="638.059" clip-path="url(#clipPath2)" font-weight="normal" stroke="none">bigint unsigned</text>
    </g>
    <g fill="gray" transform="matrix(1.659,0,0,1.659,567.2112,-336.8119) translate(0.3725,0.4028)" stroke="gray">
      <image x="330" y="624" clip-path="url(#clipPath22)" width="16" xlink:href="data:image/png;base64,iVBORw0KGgoAAAANSUhEUgAAABAAAAAQCAYAAAAf8/9hAAAAi0lEQVR4XmNgGJ7A&#13;&#10;u32LoG/TjmNA/B8L/oiuHgWANTduP41FIxyj60EBPk07TqBrQMfoerCChoYGJqBh&#13;&#10;c9E1E2UAPs0EDcCmGZ2PrgcOcGkGiSOJHUPXBwb4NIPkwWLA2AHFErpeMPBt3DkD&#13;&#10;l2YQAMUOTs0g4Nu8cw4uzUSB0FWrmMGGAF1CsuYBBQD9OsYDT+FmggAAAABJRU5E&#13;&#10;rkJggg==" height="16" preserveAspectRatio="none"/>
    </g>
    <g stroke-miterlimit="1.45" font-size="11px" font-weight="bold" font-family="'Inter'" transform="matrix(1.659,0,0,1.659,567.2112,-336.8119)" stroke-linecap="butt">
      <text x="112.3725" xml:space="preserve" y="657.3715" clip-path="url(#clipPath2)" stroke="none">contenttype</text>
      <text x="227.3725" xml:space="preserve" y="657.3715" clip-path="url(#clipPath2)" font-weight="normal" stroke="none">varchar(1024)</text>
      <text x="112.3725" xml:space="preserve" y="676.684" clip-path="url(#clipPath2)" stroke="none">contentname</text>
      <text x="227.3725" xml:space="preserve" y="676.684" clip-path="url(#clipPath2)" font-weight="normal" stroke="none">varchar(1024)</text>
      <text x="112.3725" xml:space="preserve" y="695.9965" clip-path="url(#clipPath2)" stroke="none">access</text>
      <text x="227.3725" xml:space="preserve" y="695.9965" clip-path="url(#clipPath2)" font-weight="normal" stroke="none">tinyint(1) unsigned</text>
      <text x="112.3725" xml:space="preserve" y="715.309" clip-path="url(#clipPath2)" stroke="none">grantdate</text>
      <text x="227.3725" xml:space="preserve" y="715.309" clip-path="url(#clipPath2)" font-weight="normal" stroke="none">datetime</text>
      <text x="112.3725" xml:space="preserve" y="734.6215" clip-path="url(#clipPath2)" stroke="none">checknestedgroups</text>
      <text x="227.3725" xml:space="preserve" y="734.6215" clip-path="url(#clipPath2)" font-weight="normal" stroke="none">tinyint(1) unsigned</text>
    </g>
    <g fill="gray" stroke-miterlimit="1.45" transform="matrix(1.659,0,0,1.659,567.2112,-336.8119)" stroke-linecap="butt" stroke="gray">
      <path fill="none" d="M675.0685 409.4777 L675.4081 307.4525" clip-path="url(#clipPath2)"/>
    </g>
    <g fill="gray" stroke-miterlimit="1.45" transform="matrix(1.659,0,0,1.659,567.2112,-336.8119)" stroke-linecap="butt" stroke="gray">
      <path d="M675.4348 299.4525 L670.3948 311.4358 L675.4048 308.4525 L680.3948 311.4691 Z" stroke="none" clip-path="url(#clipPath2)"/>
      <path fill="none" d="M880.756 578.2035 L752.6351 500.0771" clip-path="url(#clipPath2)"/>
      <path d="M745.8048 495.9121 L753.4471 506.4285 L753.4889 500.5977 L758.6534 497.8907 Z" clip-path="url(#clipPath2)" stroke="none"/>
      <path fill="none" d="M880.7355 651.3735 L777.2581 651.1062" clip-path="url(#clipPath2)"/>
      <path d="M769.2581 651.0855 L781.2451 656.1165 L778.2581 651.1088 L781.2709 646.1166 Z" clip-path="url(#clipPath2)" stroke="none"/>
      <path fill="none" d="M-149.3913 576.8939 L-150.093 502.4468" clip-path="url(#clipPath2)"/>
      <path d="M-150.1684 494.4472 L-155.0551 506.4938 L-150.0836 503.4468 L-145.0556 506.3995 Z" clip-path="url(#clipPath2)" stroke="none"/>
      <path fill="none" d="M-159.6588 576.8939 L-160.3606 502.4468" clip-path="url(#clipPath2)"/>
      <path d="M-160.436 494.4472 L-165.3226 506.4938 L-160.3511 503.4468 L-155.3231 506.3995 Z" clip-path="url(#clipPath2)" stroke="none"/>
      <path fill="none" d="M75.1039 451.4285 L-10.6923 451.3488" clip-path="url(#clipPath2)"/>
      <path d="M-18.6923 451.3413 L-6.697 456.3525 L-9.6923 451.3497 L-6.6877 446.3525 Z" clip-path="url(#clipPath2)" stroke="none"/>
      <path fill="none" d="M379.1162 451.9501 L541.95 452.3575" clip-path="url(#clipPath2)"/>
      <path d="M549.95 452.3776 L537.9625 447.3476 L540.95 452.355 L537.9375 457.3475 Z" clip-path="url(#clipPath2)" stroke="none"/>
      <path fill="none" d="M-156.0203 407.9802 L-156.354 361.5151" clip-path="url(#clipPath2)"/>
      <path d="M-156.4115 353.5154 L-161.3251 365.551 L-156.3468 362.5151 L-151.3254 365.4791 Z" clip-path="url(#clipPath2)" stroke="none"/>
      <path fill="none" d="M86.3859 579.3691 L-66.9852 498.181" clip-path="url(#clipPath2)"/>
      <path d="M-74.0557 494.4382 L-65.7892 504.4714 L-66.1014 498.6488 L-61.1107 495.6334 Z" clip-path="url(#clipPath2)" stroke="none"/>
      <path fill="none" d="M352.3515 650.0806 L576.3211 650.6095" clip-path="url(#clipPath2)"/>
      <path d="M584.3211 650.6284 L572.3329 645.6001 L575.3211 650.6071 L572.3093 655.6 Z" clip-path="url(#clipPath2)" stroke="none"/>
    </g>
  </g>
</svg>
